[
    {
        "id": 1,
        "title": "Prvý článok"
    },
    {
        "id": 2,
        "title": "Druhý článok"
    },
    {
        "id": 3,
        "title": "Tretí článok"
    },
    {
        "id": 4,
        "title": "Štvrtý článok"
    }
]